^C:\_GDP1\6016_NETWORK\PROJECTS\PROJECT2\TRY05-STARTGIT\INFO6016_ASSIGNMENT02\SERVER\AUTHENTICATION.PB.CC|C:\_GDP1\6016_NETWORK\PROJECTS\PROJECT2\TRY05-STARTGIT\INFO6016_ASSIGNMENT02\SERVER\AUTHENTICPROTOCOL.CPP|C:\_GDP1\6016_NETWORK\PROJECTS\PROJECT2\TRY05-STARTGIT\INFO6016_ASSIGNMENT02\SERVER\BUFFER.CPP|C:\_GDP1\6016_NETWORK\PROJECTS\PROJECT2\TRY05-STARTGIT\INFO6016_ASSIGNMENT02\SERVER\PROTOCOLELEMENTS.CPP|C:\_GDP1\6016_NETWORK\PROJECTS\PROJECT2\TRY05-STARTGIT\INFO6016_ASSIGNMENT02\SERVER\SERVER.CPP
C:\_GDP1\6016_NETWORK\PROJECTS\PROJECT2\TRY05-STARTGIT\INFO6016_ASSIGNMENT02\SERVER\RELEASE\VC140.PDB
C:\_GDP1\6016_NETWORK\PROJECTS\PROJECT2\TRY05-STARTGIT\INFO6016_ASSIGNMENT02\SERVER\RELEASE\SERVER.OBJ
C:\_GDP1\6016_NETWORK\PROJECTS\PROJECT2\TRY05-STARTGIT\INFO6016_ASSIGNMENT02\SERVER\RELEASE\PROTOCOLELEMENTS.OBJ
C:\_GDP1\6016_NETWORK\PROJECTS\PROJECT2\TRY05-STARTGIT\INFO6016_ASSIGNMENT02\SERVER\RELEASE\BUFFER.OBJ
C:\_GDP1\6016_NETWORK\PROJECTS\PROJECT2\TRY05-STARTGIT\INFO6016_ASSIGNMENT02\SERVER\RELEASE\AUTHENTICPROTOCOL.OBJ
C:\_GDP1\6016_NETWORK\PROJECTS\PROJECT2\TRY05-STARTGIT\INFO6016_ASSIGNMENT02\SERVER\RELEASE\AUTHENTICATION.PB.OBJ
^C:\_GDP1\6016_NETWORK\PROJECTS\PROJECT2\TRY05-STARTGIT\INFO6016_ASSIGNMENT02\SERVER\AUTHENTICATION.PB.CC
C:\_GDP1\6016_NETWORK\PROJECTS\PROJECT2\TRY05-STARTGIT\INFO6016_ASSIGNMENT02\SERVER\RELEASE\VC140.PDB
^C:\_GDP1\6016_NETWORK\PROJECTS\PROJECT2\TRY05-STARTGIT\INFO6016_ASSIGNMENT02\SERVER\AUTHENTICPROTOCOL.CPP
C:\_GDP1\6016_NETWORK\PROJECTS\PROJECT2\TRY05-STARTGIT\INFO6016_ASSIGNMENT02\SERVER\RELEASE\VC140.PDB
^C:\_GDP1\6016_NETWORK\PROJECTS\PROJECT2\TRY05-STARTGIT\INFO6016_ASSIGNMENT02\SERVER\BUFFER.CPP
C:\_GDP1\6016_NETWORK\PROJECTS\PROJECT2\TRY05-STARTGIT\INFO6016_ASSIGNMENT02\SERVER\RELEASE\VC140.PDB
^C:\_GDP1\6016_NETWORK\PROJECTS\PROJECT2\TRY05-STARTGIT\INFO6016_ASSIGNMENT02\SERVER\PROTOCOLELEMENTS.CPP
C:\_GDP1\6016_NETWORK\PROJECTS\PROJECT2\TRY05-STARTGIT\INFO6016_ASSIGNMENT02\SERVER\RELEASE\VC140.PDB
^C:\_GDP1\6016_NETWORK\PROJECTS\PROJECT2\TRY05-STARTGIT\INFO6016_ASSIGNMENT02\SERVER\SERVER.CPP
C:\_GDP1\6016_NETWORK\PROJECTS\PROJECT2\TRY05-STARTGIT\INFO6016_ASSIGNMENT02\SERVER\RELEASE\VC140.PDB
C:\_GDP1\6016_NETWORK\PROJECTS\PROJECT2\TRY05-STARTGIT\INFO6016_ASSIGNMENT02\SERVER\RELEASE\SERVER.OBJ
