^C:\_GDP1\6016_NETWORK\PROJECTS\PROJECT2\TRY05-STARTGIT\INFO6016_ASSIGNMENT02\SERVER\RELEASE\AUTHENTICATION.PB.OBJ|C:\_GDP1\6016_NETWORK\PROJECTS\PROJECT2\TRY05-STARTGIT\INFO6016_ASSIGNMENT02\SERVER\RELEASE\AUTHENTICPROTOCOL.OBJ|C:\_GDP1\6016_NETWORK\PROJECTS\PROJECT2\TRY05-STARTGIT\INFO6016_ASSIGNMENT02\SERVER\RELEASE\BUFFER.OBJ|C:\_GDP1\6016_NETWORK\PROJECTS\PROJECT2\TRY05-STARTGIT\INFO6016_ASSIGNMENT02\SERVER\RELEASE\PROTOCOLELEMENTS.OBJ|C:\_GDP1\6016_NETWORK\PROJECTS\PROJECT2\TRY05-STARTGIT\INFO6016_ASSIGNMENT02\SERVER\RELEASE\SERVER.OBJ
C:\WINDOWS\GLOBALIZATION\SORTING\SORTDEFAULT.NLS
C:\WINDOWS\SYSTEM32\C_1252.NLS
C:\_GDP1\6016_NETWORK\PROJECTS\PROJECT2\TRY05-STARTGIT\INFO6016_ASSIGNMENT02\LIB\LIBPROTOBUF-LITE.LIB
C:\_GDP1\6016_NETWORK\PROJECTS\PROJECT2\TRY05-STARTGIT\INFO6016_ASSIGNMENT02\LIB\LIBPROTOBUF.LIB
C:\_GDP1\6016_NETWORK\PROJECTS\PROJECT2\TRY05-STARTGIT\INFO6016_ASSIGNMENT02\LIB\LIBPROTOC.LIB
C:\PROGRAM FILES (X86)\WINDOWS KITS\8.1\LIB\WINV6.3\UM\X86\KERNEL32.LIB
C:\PROGRAM FILES (X86)\WINDOWS KITS\8.1\LIB\WINV6.3\UM\X86\USER32.LIB
C:\PROGRAM FILES (X86)\WINDOWS KITS\8.1\LIB\WINV6.3\UM\X86\GDI32.LIB
C:\PROGRAM FILES (X86)\WINDOWS KITS\8.1\LIB\WINV6.3\UM\X86\WINSPOOL.LIB
C:\PROGRAM FILES (X86)\WINDOWS KITS\8.1\LIB\WINV6.3\UM\X86\COMDLG32.LIB
C:\PROGRAM FILES (X86)\WINDOWS KITS\8.1\LIB\WINV6.3\UM\X86\ADVAPI32.LIB
C:\PROGRAM FILES (X86)\WINDOWS KITS\8.1\LIB\WINV6.3\UM\X86\SHELL32.LIB
C:\PROGRAM FILES (X86)\WINDOWS KITS\8.1\LIB\WINV6.3\UM\X86\OLE32.LIB
C:\PROGRAM FILES (X86)\WINDOWS KITS\8.1\LIB\WINV6.3\UM\X86\OLEAUT32.LIB
C:\PROGRAM FILES (X86)\WINDOWS KITS\8.1\LIB\WINV6.3\UM\X86\UUID.LIB
C:\PROGRAM FILES (X86)\WINDOWS KITS\8.1\LIB\WINV6.3\UM\X86\ODBC32.LIB
C:\PROGRAM FILES (X86)\WINDOWS KITS\8.1\LIB\WINV6.3\UM\X86\ODBCCP32.LIB
C:\_GDP1\6016_NETWORK\PROJECTS\PROJECT2\TRY05-STARTGIT\INFO6016_ASSIGNMENT02\SERVER\RELEASE\AUTHENTICATION.PB.OBJ
C:\_GDP1\6016_NETWORK\PROJECTS\PROJECT2\TRY05-STARTGIT\INFO6016_ASSIGNMENT02\SERVER\RELEASE\AUTHENTICPROTOCOL.OBJ
C:\_GDP1\6016_NETWORK\PROJECTS\PROJECT2\TRY05-STARTGIT\INFO6016_ASSIGNMENT02\SERVER\RELEASE\BUFFER.OBJ
C:\_GDP1\6016_NETWORK\PROJECTS\PROJECT2\TRY05-STARTGIT\INFO6016_ASSIGNMENT02\SERVER\RELEASE\PROTOCOLELEMENTS.OBJ
C:\_GDP1\6016_NETWORK\PROJECTS\PROJECT2\TRY05-STARTGIT\INFO6016_ASSIGNMENT02\SERVER\RELEASE\SERVER.OBJ
C:\PROGRAM FILES (X86)\MICROSOFT VISUAL STUDIO 14.0\VC\BIN\C2.DLL
C:\PROGRAM FILES (X86)\MICROSOFT VISUAL STUDIO 14.0\VC\LIB\LIBCPMT.LIB
C:\PROGRAM FILES (X86)\MICROSOFT VISUAL STUDIO 14.0\VC\LIB\LIBCMT.LIB
C:\PROGRAM FILES (X86)\MICROSOFT VISUAL STUDIO 14.0\VC\LIB\OLDNAMES.LIB
C:\PROGRAM FILES (X86)\WINDOWS KITS\8.1\LIB\WINV6.3\UM\X86\WS2_32.LIB
C:\PROGRAM FILES (X86)\MICROSOFT VISUAL STUDIO 14.0\VC\LIB\LIBVCRUNTIME.LIB
C:\PROGRAM FILES (X86)\WINDOWS KITS\10\LIB\10.0.10240.0\UCRT\X86\LIBUCRT.LIB
C:\PROGRAM FILES (X86)\MICROSOFT VISUAL STUDIO 14.0\VC\BIN\1033\LINKUI.DLL
C:\_GDP1\6016_NETWORK\PROJECTS\PROJECT2\TRY05-STARTGIT\INFO6016_ASSIGNMENT02\RELEASE\SERVER.IPDB
C:\_GDP1\6016_NETWORK\PROJECTS\PROJECT2\TRY05-STARTGIT\INFO6016_ASSIGNMENT02\RELEASE\SERVER.IOBJ
C:\PROGRAM FILES (X86)\WINDOWS KITS\8.1\BIN\X86\RC.EXE
C:\PROGRAM FILES (X86)\MICROSOFT VISUAL STUDIO 14.0\VC\BIN\CVTRES.EXE
C:\PROGRAM FILES (X86)\MICROSOFT VISUAL STUDIO 14.0\VC\BIN\MSPDBSRV.EXE
C:\WINDOWS\SYSTEM32\TZRES.DLL
