^C:\_GDP1\6016_NETWORK\PROJECTS\PROJECT2\TRY05-STARTGIT\INFO6016_ASSIGNMENT02\SERVER_AUTHENTICATION_DB\AUTHENTICATIONSERVER.CPP|C:\_GDP1\6016_NETWORK\PROJECTS\PROJECT2\TRY05-STARTGIT\INFO6016_ASSIGNMENT02\SERVER_AUTHENTICATION_DB\AUTHENTICPROTOCOL.CPP|C:\_GDP1\6016_NETWORK\PROJECTS\PROJECT2\TRY05-STARTGIT\INFO6016_ASSIGNMENT02\SERVER_AUTHENTICATION_DB\BUFFER.CPP|C:\_GDP1\6016_NETWORK\PROJECTS\PROJECT2\TRY05-STARTGIT\INFO6016_ASSIGNMENT02\SERVER_AUTHENTICATION_DB\SHA256.CPP
C:\_GDP1\6016_NETWORK\PROJECTS\PROJECT2\TRY05-STARTGIT\INFO6016_ASSIGNMENT02\SERVER_AUTHENTICATION_DB\RELEASE\VC140.PDB
C:\_GDP1\6016_NETWORK\PROJECTS\PROJECT2\TRY05-STARTGIT\INFO6016_ASSIGNMENT02\SERVER_AUTHENTICATION_DB\RELEASE\SHA256.OBJ
C:\_GDP1\6016_NETWORK\PROJECTS\PROJECT2\TRY05-STARTGIT\INFO6016_ASSIGNMENT02\SERVER_AUTHENTICATION_DB\RELEASE\AUTHENTICATIONSERVER.OBJ
C:\_GDP1\6016_NETWORK\PROJECTS\PROJECT2\TRY05-STARTGIT\INFO6016_ASSIGNMENT02\SERVER_AUTHENTICATION_DB\RELEASE\AUTHENTICPROTOCOL.OBJ
C:\_GDP1\6016_NETWORK\PROJECTS\PROJECT2\TRY05-STARTGIT\INFO6016_ASSIGNMENT02\SERVER_AUTHENTICATION_DB\RELEASE\BUFFER.OBJ
^C:\_GDP1\6016_NETWORK\PROJECTS\PROJECT2\TRY05-STARTGIT\INFO6016_ASSIGNMENT02\SERVER_AUTHENTICATION_DB\BUFFER.CPP
C:\_GDP1\6016_NETWORK\PROJECTS\PROJECT2\TRY05-STARTGIT\INFO6016_ASSIGNMENT02\SERVER_AUTHENTICATION_DB\RELEASE\VC140.PDB
^C:\_GDP1\6016_NETWORK\PROJECTS\PROJECT2\TRY05-STARTGIT\INFO6016_ASSIGNMENT02\SERVER_AUTHENTICATION_DB\AUTHENTICPROTOCOL.CPP
C:\_GDP1\6016_NETWORK\PROJECTS\PROJECT2\TRY05-STARTGIT\INFO6016_ASSIGNMENT02\SERVER_AUTHENTICATION_DB\RELEASE\VC140.PDB
^C:\_GDP1\6016_NETWORK\PROJECTS\PROJECT2\TRY05-STARTGIT\INFO6016_ASSIGNMENT02\SERVER_AUTHENTICATION_DB\SHA256.CPP
C:\_GDP1\6016_NETWORK\PROJECTS\PROJECT2\TRY05-STARTGIT\INFO6016_ASSIGNMENT02\SERVER_AUTHENTICATION_DB\RELEASE\VC140.PDB
^C:\_GDP1\6016_NETWORK\PROJECTS\PROJECT2\TRY05-STARTGIT\INFO6016_ASSIGNMENT02\SERVER_AUTHENTICATION_DB\SQLITE3.C
C:\_GDP1\6016_NETWORK\PROJECTS\PROJECT2\TRY05-STARTGIT\INFO6016_ASSIGNMENT02\SERVER_AUTHENTICATION_DB\RELEASE\VC140.PDB
C:\_GDP1\6016_NETWORK\PROJECTS\PROJECT2\TRY05-STARTGIT\INFO6016_ASSIGNMENT02\SERVER_AUTHENTICATION_DB\RELEASE\SQLITE3.OBJ
^C:\_GDP1\6016_NETWORK\PROJECTS\PROJECT2\TRY05-STARTGIT\INFO6016_ASSIGNMENT02\SERVER_AUTHENTICATION_DB\AUTHENTICATIONSERVER.CPP
C:\_GDP1\6016_NETWORK\PROJECTS\PROJECT2\TRY05-STARTGIT\INFO6016_ASSIGNMENT02\SERVER_AUTHENTICATION_DB\RELEASE\VC140.PDB
C:\_GDP1\6016_NETWORK\PROJECTS\PROJECT2\TRY05-STARTGIT\INFO6016_ASSIGNMENT02\SERVER_AUTHENTICATION_DB\RELEASE\AUTHENTICATIONSERVER.OBJ
